[
	"https://ipfs.io/ipfs/:hash",
	"https://:hash.ipfs.dweb.link",
	"https://gateway.ipfs.io/ipfs/:hash",
	"https://rx14.co.uk/ipfs/:hash",
	"https://ninetailed.ninja/ipfs/:hash",
	"https://ipfs.globalupload.io/:hash",
	"https://ipfs.jes.xxx/ipfs/:hash",
	"https://10.via0.com/ipfs/:hash",
	"https://ipfs.eternum.io/ipfs/:hash",
	"https://hardbin.com/ipfs/:hash",
	"https://ipfs.wa.hle.rs/ipfs/:hash",
	"https://gateway.blocksec.com/ipfs/:hash",
	"https://ipfs.renehsz.com/ipfs/:hash",
	"https://cloudflare-ipfs.com/ipfs/:hash",
	"https://:hash.ipfs.cf-ipfs.com",
	"https://ipns.co/:hash",
	"https://ipfs.mrh.io/ipfs/:hash",
	"https://gateway.originprotocol.com/ipfs/:hash",
	"https://gateway.pinata.cloud/ipfs/:hash",
	"https://ipfs.doolta.com/ipfs/:hash",
	"https://ipfs.sloppyta.co/ipfs/:hash",
	"https://ipfs.busy.org/ipfs/:hash",
	"https://ipfs.greyh.at/ipfs/:hash",
	"https://gateway.serph.network/ipfs/:hash",
	"https://jorropo.ovh/ipfs/:hash",
	"https://gateway.temporal.cloud/ipfs/:hash",
	"https://ipfs.fooock.com/ipfs/:hash",
	"https://cdn.cwinfo.net/ipfs/:hash",
	"https://ipfs.privacytools.io/ipfs/:hash",
	"https://ipfs.jeroendeneef.com/ipfs/:hash",
	"https://permaweb.io/ipfs/:hash",
	"https://ipfs.stibarc.com/ipfs/:hash",
	"https://ipfs.best-practice.se/ipfs/:hash",
	"https://:hash.ipfs.2read.net",
	"https://ipfs.2read.net/ipfs/:hash",
	"https://storjipfs-gateway.com/ipfs/:hash",
	"https://d26g9c7mfuzstv.cloudfront.net/ipfs/:hash",
	"https://no-censor.website/ipfs/:hash",
	"https://no-censor.space/ipfs/:hash"
]
